{
    "bookmarks": {
    "isFirst": true,
    "isLast": false,
    "hasNext": true,
    "hasPrevious": false,
    "data": [
        {
            "id": 15,
            "title": "Testing SpringBoot Applications",
            "url": "https://sivalabs.in/spring-boot-testing",
            "createdAt": "2022-12-27T01:45:04.087661Z"
        },
        {
            "id": 14,
            "title": "Testing REST APIs using Postman and Newman",
            "url": "https://sivalabs.in/testing-rest-apis-with-postman-newman",
            "createdAt": "2022-12-27T01:45:04.087661Z"
        },
        {
            "id": 13,
            "title": "Creating Yeoman based SpringBoot Generator",
            "url": "https://sivalabs.in/creating-yeoman-based-springboot-generator",
            "createdAt": "2022-12-27T01:45:04.087661Z"
        },
        {
            "id": 12,
            "title": "SpringBoot Integration Testing using TestContainers Starter",
            "url": "https://sivalabs.in/spring-boot-integration-testing-using-testcontainers-starter",
            "createdAt": "2022-12-27T01:45:04.087661Z"
        },
        {
            "id": 11,
            "title": "Imposing Code Structure Guidelines using ArchUnit",
            "url": "https://sivalabs.in/impose-architecture-guidelines-using-archunit",
            "createdAt": "2022-12-27T01:45:04.087661Z"
        },
        {
            "id": 10,
            "title": "GoLang from a Java developer perspective",
            "url": "https://sivalabs.in/golang-from-a-java-developer-perspective",
            "createdAt": "2022-12-27T01:45:04.087661Z"
        },
        {
            "id": 8,
            "title": "Few Things I learned in the HardWay in 15 years of my career",
            "url": "https://sivalabs.in/few-things-i-learned-the-hardway-in-15-years-of-my-career",
            "createdAt": "2022-12-27T01:45:04.087661Z"
        },
        {
            "id": 2,
            "title": "Announcing My SpringBoot Tips Video Series on YouTube",
            "url": "https://sivalabs.in/announcing-my-springboot-tips-video-series",
            "createdAt": "2022-12-27T01:45:04.087661Z"
        },
        {
            "id": 3,
            "title": "Kubernetes - Exposing Services to outside of Cluster using Ingress",
            "url": "https://sivalabs.in/kubernetes-ingress",
            "createdAt": "2022-12-27T01:45:04.087661Z"
        },
        {
            "id": 4,
            "title": "Kubernetes - Blue/Green Deployments",
            "url": "https://sivalabs.in/kubernetes-blue-green-deployments",
            "createdAt": "2022-12-27T01:45:04.087661Z"
        }
    ],
    "totalElements": 14,
    "pageNumber": 1,
    "totalPages": 2
}
}